<?xml version="1.0" standalone="no"?>
<!DOCTYPE svg PUBLIC "-//W3C//DTD SVG 1.1//EN" "http://www.w3.org/Graphics/SVG/1.1/DTD/svg11.dtd" >
<!--
2016-2-24: Created.
-->
<svg xmlns="http://www.w3.org/2000/svg">
<metadata>
Created by FontForge 20120731 at Wed Feb 24 21:28:38 2016
 By Apache
Created by Apache with FontForge 2.0 (http://fontforge.sf.net)
</metadata>
<defs>
<font id="Flaticon" horiz-adv-x="512" >
  <font-face 
    font-family="Flaticon"
    font-weight="500"
    font-stretch="normal"
    units-per-em="512"
    panose-1="2 0 6 3 0 0 0 0 0 0"
    ascent="448"
    descent="-64"
    bbox="0 -64 512 448"
    underline-thickness="25.6"
    underline-position="-51.2"
    unicode-range="U+0020-F106"
  />
    <missing-glyph />
    <glyph glyph-name="space" unicode=" " horiz-adv-x="200" 
 />
    <glyph glyph-name="uniF100" unicode="&#xf100;" 
d="M477.166 5.66699c19.207 0 34.834 -15.626 34.834 -34.833s-15.627 -34.834 -34.834 -34.834s-34.833 15.627 -34.833 34.834c0 6.60352 1.84766 12.7842 5.05176 18.0527l-140.953 140.953c-0.246094 0.246094 -0.46582 0.505859 -0.673828 0.772461
c-7.25391 -5.89062 -15.5684 -10.5137 -24.6074 -13.5547l10.9961 -49.4824c18.8564 -0.407227 34.0742 -15.8623 34.0742 -34.8145c0 -19.208 -15.627 -34.834 -34.834 -34.834s-34.834 15.626 -34.834 34.834c0 13.668 7.91699 25.5156 19.4004 31.2158l-10.9951 49.4785
c-2.94238 -0.333984 -5.92773 -0.522461 -8.95801 -0.522461c-27.0078 0 -50.8848 13.6201 -65.1543 34.3418l-105.506 -57.1484c1.31055 -4.14648 2.02051 -8.55762 2.02051 -13.1328c0 -24.085 -19.5947 -43.6797 -43.6797 -43.6797s-43.6807 19.5947 -43.6807 43.6797
s19.5957 43.6807 43.6807 43.6807c13.5752 0 25.7227 -6.22559 33.7393 -15.9717l105.501 57.1465c-3.85059 9.29785 -5.98828 19.4775 -5.98828 30.1514c0 18.8184 6.61914 36.1123 17.6357 49.7031l-44.3691 44.3691
c-5.26758 -3.20508 -11.4482 -5.05273 -18.0527 -5.05273c-19.207 0 -34.833 15.626 -34.833 34.834c0 19.207 15.626 34.833 34.833 34.833c19.208 0 34.834 -15.626 34.834 -34.833c0 -6.60449 -1.84766 -12.7852 -5.05273 -18.0527l44.3691 -44.3691
c13.5908 11.0166 30.8848 17.6357 49.7031 17.6357s36.1123 -6.61914 49.7031 -17.6348l96.083 96.083c-7.85547 10.3145 -12.5332 23.1738 -12.5332 37.1104c0 33.8418 27.5312 61.374 61.373 61.374s61.374 -27.5322 61.374 -61.374s-27.5322 -61.373 -61.374 -61.373
c-13.9365 0 -26.7959 4.67773 -37.1113 12.5332l-96.083 -96.083c11.0166 -13.5908 17.6357 -30.8848 17.6357 -49.7031c0 -18.8418 -6.63574 -36.1582 -17.6797 -49.7568c0.266602 -0.208008 0.526367 -0.427734 0.772461 -0.673828l140.953 -140.954
c5.26855 3.2041 11.4492 5.05176 18.0527 5.05176zM43.6807 49.9004c14.9385 0 27.0928 12.1543 27.0928 27.0928c0 14.9395 -12.1543 27.0928 -27.0928 27.0928c-14.9395 0 -27.0928 -12.1533 -27.0928 -27.0928c0 -14.9385 12.1533 -27.0928 27.0928 -27.0928z
M309.633 32.7607c0 10.0605 -8.18555 18.2461 -18.2461 18.2461s-18.2461 -8.18555 -18.2461 -18.2461c0 -10.0615 8.18555 -18.2471 18.2461 -18.2471s18.2461 8.18555 18.2461 18.2471zM450.626 431.412c-24.6953 0 -44.7861 -20.0898 -44.7861 -44.7861
c0 -24.6953 20.0908 -44.7861 44.7861 -44.7861c24.6963 0 44.7861 20.0908 44.7861 44.7861c0 24.6963 -20.0898 44.7861 -44.7861 44.7861zM113.9 315.854c0 -10.0615 8.18555 -18.2461 18.2461 -18.2461c10.0615 0 18.2471 8.18457 18.2471 18.2461
c0 10.0605 -8.18555 18.2461 -18.2471 18.2461c-10.0605 0 -18.2461 -8.18555 -18.2461 -18.2461zM256 129.521c34.4512 0 62.4795 28.0283 62.4795 62.4795s-28.0283 62.4795 -62.4795 62.4795s-62.4795 -28.0283 -62.4795 -62.4795s28.0283 -62.4795 62.4795 -62.4795z
M477.166 -47.4121c10.0615 0 18.2461 8.18457 18.2461 18.2461c0 10.0605 -8.18457 18.2461 -18.2461 18.2461c-10.0605 0 -18.2461 -8.18555 -18.2461 -18.2461c0 -10.0615 8.18555 -18.2461 18.2461 -18.2461zM256 235.681c24.085 0 43.6807 -19.5957 43.6807 -43.6807
c0 -4.58008 -3.71387 -8.29395 -8.29395 -8.29395s-8.29395 3.71387 -8.29395 8.29395c0 14.9385 -12.1543 27.0928 -27.0928 27.0928c-4.58008 0 -8.29395 3.71387 -8.29395 8.29395s3.71387 8.29395 8.29395 8.29395zM450.626 396.026
c-4.58008 0 -8.29297 3.71289 -8.29297 8.29297c0 4.58105 3.71289 8.29395 8.29297 8.29395c14.3301 0 25.9873 -11.6572 25.9873 -25.9873c0 -4.58008 -3.71289 -8.29297 -8.29395 -8.29297c-4.58008 0 -8.29297 3.71289 -8.29297 8.29297
c0 5.18359 -4.2168 9.40039 -9.40039 9.40039z" />
    <glyph glyph-name="uniF104" unicode="&#xf104;" 
d="M498.944 261.248c0.212891 -0.938477 0.277344 -1.94141 0.106445 -2.96582c-0.533203 -4.30859 -4.20312 -7.46582 -8.44824 -7.46582c-0.34082 0 -0.704102 0.0205078 -1.06641 0.0634766c-2.00586 0.255859 -3.81836 1.2373 -5.16309 2.62402v0
c-125.952 125.909 -330.943 126.059 -456.981 0.383789c-3.32715 -3.32812 -8.74609 -3.30664 -12.0527 0.0214844c-3.32812 3.32812 -3.32812 8.74707 0.0214844 12.0537c132.586 132.245 348.224 132.16 480.832 -0.149414
c0.319336 -0.277344 0.59668 -0.554688 0.874023 -0.875l1.87793 -1.85547v-1.83496zM64.2344 217.066c105.835 105.323 277.803 105.152 383.36 -0.426758l-12.2451 -11.8818c-0.298828 0.297852 -0.662109 0.789062 -0.896484 1.12988
c-97.8135 97.6221 -258.986 97.7705 -358.165 -0.938477c-1.66406 -1.64258 -3.83984 -2.47461 -6.01562 -2.47461c-2.19824 0 -4.39551 0.832031 -6.05957 2.51758c-3.32715 3.34961 -3.32715 8.74609 0.0214844 12.0742zM113.152 168.149
c78.8262 78.4004 206.891 78.1865 285.482 -0.426758l3.96777 -2.51758l-1.25879 -3.77539c0 -4.71484 -3.81836 -8.53418 -8.5332 -8.53418c-3.0293 0 -5.69629 1.60059 -7.21094 3.99023c-73.6211 70.7627 -189.034 70.165 -260.395 -0.832031
c-3.34863 -3.32812 -8.76758 -3.30664 -12.0742 0.0205078c-3.32812 3.34961 -3.30664 8.74707 0.0214844 12.0752zM162.026 119.232c51.8613 51.4131 136.086 51.2422 187.691 -0.40625c3.32715 -3.32715 3.32715 -8.72461 0 -12.0527
c-1.66406 -1.66406 -3.84082 -2.49609 -6.03809 -2.49609s-4.37305 0.832031 -6.03711 2.49609c-44.9922 45.0137 -118.379 45.1416 -163.584 0.34082c-3.37012 -3.32715 -8.78906 -3.26367 -12.0742 0.0429688c-3.32812 3.34961 -3.30664 8.74707 0.0419922 12.0752z
M256.427 89.2588c19.4131 0 35.2217 -15.8291 35.2422 -35.2852c0 -19.4561 -15.8076 -35.2646 -35.2422 -35.2646c-19.4775 0 -35.3281 15.8086 -35.3281 35.2646s15.8506 35.2852 35.3281 35.2852zM256.427 35.7764c10.0049 0 18.1758 8.16992 18.1758 18.1973
c0 10.0479 -8.14941 18.2188 -18.1758 18.2188c-10.0693 0 -18.2617 -8.1709 -18.2617 -18.2188c0 -10.0273 8.19238 -18.1973 18.2617 -18.1973z" />
    <glyph glyph-name="uniF103" unicode="&#xf103;" 
d="M256.042 -64l-6.56445 11.5693c-0.941406 1.66016 -94.791 167.103 -120.87 215.545c-16.5664 30.8066 -35.9062 81.1094 -35.9062 121.505c0 90.0869 73.2598 163.381 163.307 163.381c90.0361 0 163.291 -73.2939 163.291 -163.381
c0 -39.0186 -18.0732 -91.7031 -35.0859 -121.471c-30.4473 -53.0986 -120.754 -213.934 -121.659 -215.55zM256.008 432.989c-81.7705 0 -148.295 -66.5605 -148.295 -148.37c0 -35.1914 17.1328 -82.8115 34.1094 -114.391
c21.9619 -40.7891 92.2686 -165.057 114.15 -203.681c21.3906 38.0742 89.5352 159.288 115.201 204.057c16.2715 28.4707 33.1045 78.9131 33.1045 114.015c0.00976562 81.8096 -66.5107 148.37 -148.271 148.37zM256.008 210.975
c-40.8652 0 -74.1104 33.2549 -74.1104 74.1299c0 40.8848 33.2451 74.1504 74.1104 74.1504c40.8496 0 74.0889 -33.2656 74.0889 -74.1504c-0.00488281 -40.875 -33.2393 -74.1299 -74.0889 -74.1299zM256.008 344.243c-32.5898 0 -59.0986 -26.5293 -59.0986 -59.1387
c0 -32.5996 26.5098 -59.1191 59.0986 -59.1191c32.5742 0 59.0791 26.5244 59.0791 59.1191c-0.00488281 32.6094 -26.5107 59.1387 -59.0791 59.1387z" />
    <glyph glyph-name="uniF106" unicode="&#xf106;" 
d="M213.105 92.0254c4.56152 0 8.25781 -3.69727 8.25781 -8.25684v-27.4277v-70.8008c0 -4.56152 -3.69629 -8.25879 -8.25781 -8.25879s-8.25781 3.69727 -8.25781 8.25879v33.7012c-8.87207 -8.01562 -20.6191 -12.9053 -33.4883 -12.9053
s-24.6172 4.88965 -33.4883 12.9053v-33.7031c0 -4.56055 -3.69629 -8.25781 -8.25781 -8.25781s-8.25781 3.69727 -8.25781 8.25781v70.8018v27.4277c0 4.56055 3.69629 8.25781 8.25781 8.25781h83.4922zM204.848 56.3398v19.1699h-66.9766v-19.1699
c0 -18.4658 15.0234 -33.4893 33.4883 -33.4893s33.4883 15.0234 33.4883 33.4893zM382.387 92.0254c4.56152 0 8.25781 -3.69727 8.25781 -8.25684v-27.4277v-70.8008c0 -4.56152 -3.69629 -8.25879 -8.25781 -8.25879s-8.25781 3.69727 -8.25781 8.25879v33.7012
c-8.87109 -8.01562 -20.6191 -12.9053 -33.4883 -12.9053s-24.6162 4.88965 -33.4883 12.9053v-33.7031c0 -4.56055 -3.69629 -8.25781 -8.25781 -8.25781s-8.25781 3.69727 -8.25781 8.25781v70.8018v27.4277c0 4.56055 3.69629 8.25781 8.25781 8.25781h83.4922z
M374.129 56.3398v19.1699h-66.9766v-19.1699c0 -18.4658 15.0234 -33.4893 33.4883 -33.4893s33.4883 15.0234 33.4883 33.4893zM391.769 317.497c21.7207 -29.251 33.1895 -63.9609 33.1895 -100.576v-243.261c0 -20.7656 -16.8936 -37.6592 -37.6592 -37.6592h-262.598
c-20.7656 0 -37.6592 16.8936 -37.6592 37.6592v243.262c0 36.6162 11.4717 71.3281 33.1943 100.581v30.7178c0 20.7646 16.8936 37.6592 37.6592 37.6592h45.2207c6.23438 32.4365 33.8096 62.1201 52.8896 62.1201c19.0791 0 46.6553 -29.6836 52.8896 -62.1211h45.2188
c20.7656 0 37.6602 -16.8945 37.6602 -37.6592zM280.229 411.329v-25.4502h11.8008c-2.29004 9.50391 -6.71484 18.2314 -11.8008 25.4502zM248.298 428.276v-42.3965h15.415v42.3975c-3.0791 2.06836 -5.78125 3.20703 -7.70703 3.20703
s-4.62793 -1.13965 -7.70801 -3.20801zM231.782 411.329c-5.08594 -7.21875 -9.51074 -15.9463 -11.8008 -25.4492h11.8008v25.4492zM136.752 348.22v-54.3701c0 -55.6279 38.291 -102.478 89.8984 -115.588v30.7148c0 4.56055 3.69629 8.25781 8.25879 8.25781
c4.56152 0 8.25781 -3.69727 8.25781 -8.25781v-33.6816c4.2168 -0.454102 8.49805 -0.693359 12.833 -0.693359s8.61621 0.239258 12.833 0.693359v33.6816c0 4.56055 3.69629 8.25781 8.25781 8.25781c4.5625 0 8.25879 -3.69727 8.25879 -8.25781v-30.7148
c51.6074 13.1094 89.8984 59.959 89.8984 115.588l0.0107422 54.3711c0 11.6572 -9.48535 21.1416 -21.1445 21.1416h-52.3799h-0.0136719h-0.0107422h-143.814c-11.6582 0 -21.1436 -9.48438 -21.1436 -21.1426zM243.167 141.57h25.666v17.1279
c-4.22559 -0.398438 -8.50488 -0.611328 -12.833 -0.611328s-8.60742 0.212891 -12.833 0.611328v-17.1279zM268.833 125.055h-25.666v-5.06641c0 -7.0752 5.75781 -12.833 12.833 -12.833s12.833 5.75684 12.833 12.833v5.06641zM408.441 -26.3408v243.262
c0 24.6777 -5.77734 48.3955 -16.8643 69.8154c-3.19629 -61.6162 -47.668 -112.488 -106.228 -125.444v-19.7217h1.37109c4.5625 0 8.25879 -3.69727 8.25879 -8.25781s-3.69629 -8.25781 -8.25879 -8.25781h-1.37109v-5.06641
c0 -16.1826 -13.166 -29.3486 -29.3496 -29.3486s-29.3496 13.165 -29.3496 29.3486v5.06641h-1.37109c-4.5625 0 -8.25879 3.69727 -8.25879 8.25781s3.69629 8.25781 8.25879 8.25781h1.37109v19.7217c-58.5576 12.9551 -103.031 63.8271 -106.228 125.444
c-11.0869 -21.4209 -16.8643 -45.1377 -16.8643 -69.8154v-243.262c0 -11.6582 9.48438 -21.1436 21.1426 -21.1436h262.598c11.6582 0 21.1426 9.48535 21.1426 21.1436z" />
    <glyph glyph-name="uniF101" unicode="&#xf101;" 
d="M284.01 -58.8594h-53.8193c-8.09766 0 -10.9219 -0.0175781 -38.5156 68.3447l-21.3105 8.66211c-58.0654 -26.3428 -64.9385 -26.3428 -67.2363 -26.3428h-4.44336l-3.78906 3.25488l-38.1514 37.3271c-5.80176 5.79199 -7.8125 7.80273 22.042 75.2715
l-8.68945 20.5586c-70.0967 25.1182 -70.0967 28.0332 -70.0967 36.3105v52.7646c0 8.26758 0 10.8779 69.8643 37.8926l8.68945 20.6025c-31.5801 66.4424 -29.4072 68.5059 -23.1787 74.3701l41.0293 40.2246l5.09473 0.160156
c6.19434 0 29.1758 -8.38477 68.3633 -24.9297l21.248 8.62695c25.5801 68.6309 28.7197 68.6201 36.79 68.6201h53.8193c8.0625 0 10.8975 -0.00976562 38.4912 -68.3896l21.3447 -8.59961c57.9756 26.3076 64.9385 26.3076 67.2539 26.3076h4.41602l3.78906 -3.19922
l38.1514 -37.2656c5.80176 -5.85449 7.78516 -7.85742 -22.0693 -75.3535l8.71484 -20.6758c70.1855 -25.0117 70.1855 -27.916 70.1855 -36.2109v-52.7031c0 -8.07227 0 -10.9141 -69.9541 -37.9434l-8.63379 -20.6211c31.4199 -66.1553 29.3447 -68.2285 23.4629 -74.1553
l-41.3408 -40.4736l-5.12305 -0.142578c-6.16699 0 -29.0947 8.39453 -68.2285 24.9561l-21.3721 -8.63379c-25.6504 -68.6152 -28.5654 -68.6152 -36.7979 -68.6152zM235.785 -37.0752h42.4502c4.87012 9.93066 15.4004 36.2559 23.8301 58.9316l1.69824 4.51367
l38.6514 15.6074l4.15625 -1.76074c23.0352 -9.82324 50.2627 -20.7109 60.8721 -24.0547l29.8291 29.1748c-3.78809 10.5029 -15.2754 36.2012 -25.6357 57.8779l-2.08984 4.40625l15.9922 38.1758l4.35352 1.68164c23.2676 8.95605 50.2275 20.0137 60.3008 25.0557
v40.9863c-10.1904 4.79102 -37.043 15.0088 -60.1836 23.2139l-4.53027 1.61816l-16.0977 38.2139l1.9209 4.30859c9.90234 22.3467 20.917 48.707 24.4463 59.3262l-29.9092 29.2383c-9.65332 -3.37012 -36.6855 -14.9541 -59.4863 -25.3594l-4.24609 -1.94824
l-38.6514 15.5811l-1.72559 4.29785c-9.13672 22.8037 -20.4883 49.2441 -25.6084 59.0322h-42.4199c-4.89746 -9.90332 -15.3926 -36.2383 -23.8027 -58.9072l-1.6709 -4.48828l-38.543 -15.6602l-4.15625 1.77832c-23.0889 9.80566 -50.3701 20.6758 -61.0156 24.0176
l-29.7764 -29.1924c3.73633 -10.4854 15.2578 -36.166 25.583 -57.8428l2.11816 -4.41602l-16.0723 -38.1592l-4.32617 -1.6709c-23.2305 -8.94629 -50.1455 -19.9961 -60.2207 -25.0195v-41.0381c10.1904 -4.80859 37.0156 -15.0537 60.1406 -23.293l4.49609 -1.63672
l16.0996 -38.0859l-1.9209 -4.29883c-9.90234 -22.3291 -20.9072 -48.6543 -24.4463 -59.2539l29.9717 -29.3271c9.62598 3.39648 36.623 14.9805 59.4512 25.3955l4.27344 1.95801l38.5713 -15.6777l1.72559 -4.29785c9.16406 -22.8115 20.4814 -49.2061 25.6035 -59.002z
M255.996 104.191c-49.3506 0 -89.5381 39.3926 -89.5381 87.8145c0 48.3848 40.1797 87.7529 89.5381 87.7529c49.3232 0 89.4131 -39.376 89.4131 -87.7529c0 -48.4219 -40.0898 -87.8145 -89.4131 -87.8145zM255.996 257.954
c-37.3545 0 -67.7188 -29.5869 -67.7188 -65.9502c0 -36.3887 30.3564 -66.0029 67.7188 -66.0029c37.293 0 67.6318 29.6143 67.6318 66.0029c-0.0107422 36.3633 -30.3389 65.9502 -67.6318 65.9502z" />
    <glyph glyph-name="uniF105" unicode="&#xf105;" 
d="M416.891 448c5.75488 0 10.4189 -4.66602 10.4209 -10.4189v-491.162c0 -5.75293 -4.66602 -10.4189 -10.4189 -10.4189h-321.783c-5.75293 0 -10.4189 4.66602 -10.4189 10.4189v491.162c0 5.75293 4.66602 10.4189 10.4189 10.4189h321.781zM406.472 427.162h-300.943
v-48.6631h265.082c5.75293 0 10.4189 -4.66602 10.4189 -10.4189s-4.66602 -10.4189 -10.4189 -10.4189h-265.082v-331.32h300.943v400.821zM105.528 -43.1621h300.945v48.6631h-300.945v-48.6631zM256 145.114c-5.75488 0 -10.4189 4.66602 -10.4189 10.4189v125.837
c0 5.75293 4.66602 10.4189 10.4189 10.4189s10.4189 -4.66602 10.4189 -10.4189v-125.837c0 -5.75293 -4.66602 -10.4189 -10.4189 -10.4189zM305.117 166.481c4.06934 4.06934 10.666 4.06543 14.7344 -0.000976562
c4.06934 -4.06738 4.06934 -10.6641 -0.000976562 -14.7344l-56.4844 -56.4824c-2.0332 -2.0332 -4.7002 -3.05078 -7.36621 -3.05078s-5.33301 1.01758 -7.36621 3.05078l-56.4844 56.4824c-4.07031 4.06836 -4.07031 10.665 -0.000976562 14.7344
c4.06836 4.07031 10.667 4.06836 14.7344 0.000976562l49.1172 -49.1152z" />
    <glyph glyph-name="uniF102" unicode="&#xf102;" 
d="M225.07 -64c-10.3809 0 -20.5322 4.21387 -27.8672 11.5488l-185.664 185.663c-7.32617 7.31836 -11.5225 17.4697 -11.5225 27.8418c0 10.5322 4.08594 20.4307 11.5225 27.8584l247.345 247.32c7.41211 7.57129 17.3945 11.7676 28.0547 11.7676h185.663
c21.7168 0 39.3818 -17.6816 39.3818 -39.4072v-185.637c0 -10.542 -4.09473 -20.4482 -11.54 -27.8848l-247.507 -247.515c-7.46094 -7.45215 -17.3594 -11.5566 -27.8662 -11.5566zM286.938 431.08c-6.07422 0 -11.7764 -2.39453 -16.041 -6.75098l-247.396 -247.379
c-4.2373 -4.23828 -6.56543 -9.88184 -6.56543 -15.8965c0 -5.91309 2.39453 -11.709 6.56543 -15.8799l185.672 -185.654c8.44336 -8.44434 23.3506 -8.44434 31.8018 0.00878906l247.515 247.515c4.24707 4.24707 6.58203 9.88965 6.58203 15.9131v185.637
c0 12.4033 -10.085 22.4873 -22.4697 22.4873h-185.664zM426.198 322.784c-21.7256 0 -39.4062 17.6719 -39.4062 39.3887c0 21.7256 17.6816 39.4072 39.4062 39.4072c21.7168 0 39.3809 -17.6816 39.3809 -39.4072c0 -21.7168 -17.6641 -39.3887 -39.3809 -39.3887z
M426.198 384.668c-12.4023 0 -22.4863 -10.084 -22.4863 -22.4863c0 -12.3936 10.084 -22.4697 22.4863 -22.4697c12.3857 0 22.4619 10.0752 22.4619 22.4697s-10.0762 22.4863 -22.4619 22.4863z" />
  </font>
</defs></svg>
